lab4/waveform.vcd
$version Generated by VerilatedVcd $end
$timescale 1s $end

 $scope module TOP $end
  $var wire  1 5! clk $end
  $var wire 32 7! r[0] [31:0] $end
  $var wire 32 A! r[10] [31:0] $end
  $var wire 32 B! r[11] [31:0] $end
  $var wire 32 C! r[12] [31:0] $end
  $var wire 32 D! r[13] [31:0] $end
  $var wire 32 E! r[14] [31:0] $end
  $var wire 32 F! r[15] [31:0] $end
  $var wire 32 G! r[16] [31:0] $end
  $var wire 32 H! r[17] [31:0] $end
  $var wire 32 I! r[18] [31:0] $end
  $var wire 32 J! r[19] [31:0] $end
  $var wire 32 8! r[1] [31:0] $end
  $var wire 32 K! r[20] [31:0] $end
  $var wire 32 L! r[21] [31:0] $end
  $var wire 32 M! r[22] [31:0] $end
  $var wire 32 N! r[23] [31:0] $end
  $var wire 32 O! r[24] [31:0] $end
  $var wire 32 P! r[25] [31:0] $end
  $var wire 32 Q! r[26] [31:0] $end
  $var wire 32 R! r[27] [31:0] $end
  $var wire 32 S! r[28] [31:0] $end
  $var wire 32 T! r[29] [31:0] $end
  $var wire 32 9! r[2] [31:0] $end
  $var wire 32 U! r[30] [31:0] $end
  $var wire 32 V! r[31] [31:0] $end
  $var wire 32 :! r[3] [31:0] $end
  $var wire 32 ;! r[4] [31:0] $end
  $var wire 32 <! r[5] [31:0] $end
  $var wire 32 =! r[6] [31:0] $end
  $var wire 32 >! r[7] [31:0] $end
  $var wire 32 ?! r[8] [31:0] $end
  $var wire 32 @! r[9] [31:0] $end
  $var wire  1 6! start $end
  $scope module PipelineCPU $end
   $var wire  4 1 ALUCtrl [3:0] $end
   $var wire 32 p ALU_out [31:0] $end
   $var wire  1 j BrEQ $end
   $var wire  1 k BrLT $end
   $var wire 32 u EXMEM_ALU [31:0] $end
   $var wire  1 s EXMEM_memRead $end
   $var wire  2 3 EXMEM_memtoReg [1:0] $end
   $var wire  1 2 EXMEM_memwrite $end
   $var wire 32 5 EXMEM_pc_o [31:0] $end
   $var wire  5 v EXMEM_rd [4:0] $end
   $var wire  1 t EXMEM_regwrite $end
   $var wire 32 4 EXMEM_writeData [31:0] $end
   $var wire  2 - IDEX_ALUOp [1:0] $end
   $var wire  1 + IDEX_ALUSrc_A $end
   $var wire  1 , IDEX_ALUSrc_B $end
   $var wire  1 3! IDEX_flush $end
   $var wire  3 % IDEX_funct3 [2:0] $end
   $var wire  1 & IDEX_funct7 $end
   $var wire 32 ) IDEX_imm [31:0] $end
   $var wire  1 g IDEX_memRead $end
   $var wire  2 $ IDEX_memtoReg [1:0] $end
   $var wire  1 # IDEX_memwrite $end
   $var wire  7 0 IDEX_opcode [6:0] $end
   $var wire 32 * IDEX_pc_o [31:0] $end
   $var wire  5 i IDEX_rd [4:0] $end
   $var wire 32 ' IDEX_readdata1 [31:0] $end
   $var wire 32 ( IDEX_readdata2 [31:0] $end
   $var wire  1 h IDEX_regwrite $end
   $var wire  5 . IDEX_rs1 [4:0] $end
   $var wire  5 / IDEX_rs2 [4:0] $end
   $var wire  1 3! IFID_flush $end
   $var wire  3 ^ IFID_func3_o [2:0] $end
   $var wire  1 ] IFID_func7_o $end
   $var wire 32 \ IFID_inst_o [31:0] $end
   $var wire 32 [ IFID_pc_o [31:0] $end
   $var wire  5 z IFID_rd_o [4:0] $end
   $var wire  5 _ IFID_rs1_o [4:0] $end
   $var wire  5 ` IFID_rs2_o [4:0] $end
   $var wire 32 7 MEMWB_ALU [31:0] $end
   $var wire 32 8 MEMWB_mem [31:0] $end
   $var wire  2 6 MEMWB_memtoReg [1:0] $end
   $var wire 32 9 MEMWB_pc_o [31:0] $end
   $var wire  5 x MEMWB_rd [4:0] $end
   $var wire  1 w MEMWB_regwrite $end
   $var wire  1 4! PCsel $end
   $var wire  1 5! clk $end
   $var wire  2 } control_ALUOp [1:0] $end
   $var wire  1 { control_ALUSrc_A $end
   $var wire  1 | control_ALUSrc_B $end
   $var wire  1 !! control_memRead $end
   $var wire  2 #! control_memtoReg [1:0] $end
   $var wire  1 ~ control_memwrite $end
   $var wire  1 "! control_regwrite $end
   $var wire 32 Z! dataMem_o [31:0] $end
   $var wire  1 3! flush $end
   $var wire  2 q forward_A [1:0] $end
   $var wire  2 r forward_B [1:0] $end
   $var wire  1 1! harzard_control_mux $end
   $var wire  1 0! harzard_ifid_stall $end
   $var wire  1 /! harzard_pc_stall $end
   $var wire 32 a imm_out [31:0] $end
   $var wire 32 2! inst [31:0] $end
   $var wire 32 n mux_alu_a_o [31:0] $end
   $var wire 32 o mux_alu_b_o [31:0] $end
   $var wire  9 '! mux_control_o [8:0] $end
   $var wire 32 l mux_forward_alu_a_o [31:0] $end
   $var wire 32 m mux_forward_alu_b_o [31:0] $end
   $var wire 32 W! mux_pc_o [31:0] $end
   $var wire 32 y mux_regwrite_o [31:0] $end
   $var wire 32 f pc_adder_o [31:0] $end
   $var wire 32 e pc_o [31:0] $end
   $var wire 32 7! r[0] [31:0] $end
   $var wire 32 A! r[10] [31:0] $end
   $var wire 32 B! r[11] [31:0] $end
   $var wire 32 C! r[12] [31:0] $end
   $var wire 32 D! r[13] [31:0] $end
   $var wire 32 E! r[14] [31:0] $end
   $var wire 32 F! r[15] [31:0] $end
   $var wire 32 G! r[16] [31:0] $end
   $var wire 32 H! r[17] [31:0] $end
   $var wire 32 I! r[18] [31:0] $end
   $var wire 32 J! r[19] [31:0] $end
   $var wire 32 8! r[1] [31:0] $end
   $var wire 32 K! r[20] [31:0] $end
   $var wire 32 L! r[21] [31:0] $end
   $var wire 32 M! r[22] [31:0] $end
   $var wire 32 N! r[23] [31:0] $end
   $var wire 32 O! r[24] [31:0] $end
   $var wire 32 P! r[25] [31:0] $end
   $var wire 32 Q! r[26] [31:0] $end
   $var wire 32 R! r[27] [31:0] $end
   $var wire 32 S! r[28] [31:0] $end
   $var wire 32 T! r[29] [31:0] $end
   $var wire 32 9! r[2] [31:0] $end
   $var wire 32 U! r[30] [31:0] $end
   $var wire 32 V! r[31] [31:0] $end
   $var wire 32 :! r[3] [31:0] $end
   $var wire 32 ;! r[4] [31:0] $end
   $var wire 32 <! r[5] [31:0] $end
   $var wire 32 =! r[6] [31:0] $end
   $var wire 32 >! r[7] [31:0] $end
   $var wire 32 ?! r[8] [31:0] $end
   $var wire 32 @! r[9] [31:0] $end
   $var wire 32 X! readData1 [31:0] $end
   $var wire 32 Y! readData2 [31:0] $end
   $var wire 32 : regwrite_pcp4 [31:0] $end
   $var wire  1 6! start $end
   $var wire  1 $! use_rs1 $end
   $var wire  1 %! use_rs2 $end
   $scope module m_ALU $end
    $var wire 32 n A [31:0] $end
    $var wire 32 p ALUOut [31:0] $end
    $var wire  4 1 ALUctl [3:0] $end
    $var wire 32 o B [31:0] $end
   $upscope $end
   $scope module m_ALUCtrl $end
    $var wire  4 1 ALUCtl [3:0] $end
    $var wire  2 - ALUOp [1:0] $end
    $var wire  3 % funct3 [2:0] $end
    $var wire  1 & funct7 $end
   $upscope $end
   $scope module m_DataMemory $end
    $var wire 32 u address [31:0] $end
    $var wire  1 5! clk $end
    $var wire  1 s memRead $end
    $var wire  1 2 memWrite $end
    $var wire 32 Z! readData [31:0] $end
    $var wire  1 6! rst $end
    $var wire 32 4 writeData [31:0] $end
   $upscope $end
   $scope module m_EXcontrol $end
    $var wire  1 j BrEQ $end
    $var wire  1 k BrLT $end
    $var wire  1 4! PCsel $end
    $var wire  1 3! flush $end
    $var wire  3 % func3 [2:0] $end
    $var wire  7 0 opcode [6:0] $end
   $upscope $end
   $scope module m_IDControl $end
    $var wire  2 } ALUOp [1:0] $end
    $var wire  1 { ALUSrc_A $end
    $var wire  1 | ALUSrc_B $end
    $var wire  1 !! memRead $end
    $var wire  1 ~ memWrite $end
    $var wire  2 #! memtoReg [1:0] $end
    $var wire  7 b opcode [6:0] $end
    $var wire  1 "! regWrite $end
    $var wire  1 $! use_rs1 $end
    $var wire  1 %! use_rs2 $end
   $upscope $end
   $scope module m_ImmGen $end
    $var wire 32 a imm [31:0] $end
    $var wire 32 \ inst [31:0] $end
    $var wire  7 b opcode [6:0] $end
   $upscope $end
   $scope module m_InstMem $end
    $var wire 32 2! inst [31:0] $end
    $var wire 32 e readAddr [31:0] $end
   $upscope $end
   $scope module m_PC $end
    $var wire  1 5! clk $end
    $var wire 32 W! pc_i [31:0] $end
    $var wire 32 e pc_o [31:0] $end
    $var wire  1 6! rst $end
    $var wire  1 /! stall $end
   $upscope $end
   $scope module m_Register $end
    $var wire  1 5! clk $end
    $var wire 32 X! readData1 [31:0] $end
    $var wire 32 Y! readData2 [31:0] $end
    $var wire  5 c readReg1 [4:0] $end
    $var wire  5 d readReg2 [4:0] $end
    $var wire  1 w regWrite $end
    $var wire 32 ; regs[0] [31:0] $end
    $var wire 32 E regs[10] [31:0] $end
    $var wire 32 F regs[11] [31:0] $end
    $var wire 32 G regs[12] [31:0] $end
    $var wire 32 H regs[13] [31:0] $end
    $var wire 32 I regs[14] [31:0] $end
    $var wire 32 J regs[15] [31:0] $end
    $var wire 32 K regs[16] [31:0] $end
    $var wire 32 L regs[17] [31:0] $end
    $var wire 32 M regs[18] [31:0] $end
    $var wire 32 N regs[19] [31:0] $end
    $var wire 32 < regs[1] [31:0] $end
    $var wire 32 O regs[20] [31:0] $end
    $var wire 32 P regs[21] [31:0] $end
    $var wire 32 Q regs[22] [31:0] $end
    $var wire 32 R regs[23] [31:0] $end
    $var wire 32 S regs[24] [31:0] $end
    $var wire 32 T regs[25] [31:0] $end
    $var wire 32 U regs[26] [31:0] $end
    $var wire 32 V regs[27] [31:0] $end
    $var wire 32 W regs[28] [31:0] $end
    $var wire 32 X regs[29] [31:0] $end
    $var wire 32 = regs[2] [31:0] $end
    $var wire 32 Y regs[30] [31:0] $end
    $var wire 32 Z regs[31] [31:0] $end
    $var wire 32 > regs[3] [31:0] $end
    $var wire 32 ? regs[4] [31:0] $end
    $var wire 32 @ regs[5] [31:0] $end
    $var wire 32 A regs[6] [31:0] $end
    $var wire 32 B regs[7] [31:0] $end
    $var wire 32 C regs[8] [31:0] $end
    $var wire 32 D regs[9] [31:0] $end
    $var wire  1 6! rst $end
    $var wire 32 y writeData [31:0] $end
    $var wire  5 x writeReg [4:0] $end
   $upscope $end
   $scope module m_adder_regwrite $end
    $var wire 32 9 a [31:0] $end
    $var wire 32 [! b [31:0] $end
    $var wire 32 : sum [31:0] $end
   $upscope $end
   $scope module m_branchCMP $end
    $var wire 32 l A [31:0] $end
    $var wire 32 m B [31:0] $end
    $var wire  1 j BrEQ $end
    $var wire  1 k BrLT $end
   $upscope $end
   $scope module m_forwarding $end
    $var wire  1 t EXMEM_regwrite $end
    $var wire  5 v EXMEM_writeReg [4:0] $end
    $var wire  1 w MEMWB_regwrite $end
    $var wire  5 x MEMWB_writeReg [4:0] $end
    $var wire  2 q forward_A [1:0] $end
    $var wire  2 r forward_B [1:0] $end
    $var wire  5 . rs1 [4:0] $end
    $var wire  5 / rs2 [4:0] $end
   $upscope $end
   $scope module m_harzard_detection $end
    $var wire  5 i IDEX_rd [4:0] $end
    $var wire  1 0! IFID_stall $end
    $var wire  1 /! PC_stall $end
    $var wire  1 1! control_mux $end
    $var wire  1 g memRead $end
    $var wire  5 _ rs1 [4:0] $end
    $var wire  5 ` rs2 [4:0] $end
    $var wire  1 $! use_rs1 $end
    $var wire  1 %! use_rs2 $end
   $upscope $end
   $scope module m_mux_IDEX $end
    $var wire  1 3! out [0:0] $end
    $var wire  1 ]! s0 [0:0] $end
    $var wire  1 ^! s1 [0:0] $end
    $var wire  1 3! sel $end
    $var wire 32 \! size [31:0] $end
   $upscope $end
   $scope module m_mux_IFID $end
    $var wire  1 3! out [0:0] $end
    $var wire  1 ]! s0 [0:0] $end
    $var wire  1 ^! s1 [0:0] $end
    $var wire  1 3! sel $end
    $var wire 32 \! size [31:0] $end
   $upscope $end
   $scope module m_mux_alu_a $end
    $var wire 32 n out [31:0] $end
    $var wire 32 l s0 [31:0] $end
    $var wire 32 * s1 [31:0] $end
    $var wire  1 + sel $end
    $var wire 32 _! size [31:0] $end
   $upscope $end
   $scope module m_mux_alu_b $end
    $var wire 32 o out [31:0] $end
    $var wire 32 m s0 [31:0] $end
    $var wire 32 ) s1 [31:0] $end
    $var wire  1 , sel $end
    $var wire 32 _! size [31:0] $end
   $upscope $end
   $scope module m_mux_control $end
    $var wire  9 '! out [8:0] $end
    $var wire  9 &! s0 [8:0] $end
    $var wire  9 a! s1 [8:0] $end
    $var wire  1 1! sel $end
    $var wire 32 `! size [31:0] $end
   $upscope $end
   $scope module m_mux_forward_alu_a $end
    $var wire 32 l out [31:0] $end
    $var wire 32 ' s0 [31:0] $end
    $var wire 32 y s1 [31:0] $end
    $var wire 32 u s2 [31:0] $end
    $var wire  2 q sel [1:0] $end
    $var wire 32 _! size [31:0] $end
   $upscope $end
   $scope module m_mux_forward_alu_b $end
    $var wire 32 m out [31:0] $end
    $var wire 32 ( s0 [31:0] $end
    $var wire 32 y s1 [31:0] $end
    $var wire 32 u s2 [31:0] $end
    $var wire  2 r sel [1:0] $end
    $var wire 32 _! size [31:0] $end
   $upscope $end
   $scope module m_mux_pc $end
    $var wire 32 W! out [31:0] $end
    $var wire 32 f s0 [31:0] $end
    $var wire 32 p s1 [31:0] $end
    $var wire  1 4! sel $end
    $var wire 32 _! size [31:0] $end
   $upscope $end
   $scope module m_mux_regWrite $end
    $var wire 32 y out [31:0] $end
    $var wire 32 8 s0 [31:0] $end
    $var wire 32 7 s1 [31:0] $end
    $var wire 32 : s2 [31:0] $end
    $var wire  2 6 sel [1:0] $end
    $var wire 32 _! size [31:0] $end
   $upscope $end
   $scope module m_pc_adder $end
    $var wire 32 e a [31:0] $end
    $var wire 32 [! b [31:0] $end
    $var wire 32 f sum [31:0] $end
   $upscope $end
   $scope module m_regEXMEM $end
    $var wire 32 p ALU_i [31:0] $end
    $var wire 32 u ALU_o [31:0] $end
    $var wire  1 5! clk $end
    $var wire  1 g memRead_i $end
    $var wire  1 s memRead_o $end
    $var wire  1 # memWrite_i $end
    $var wire  1 2 memWrite_o $end
    $var wire  2 $ memtoReg_i [1:0] $end
    $var wire  2 3 memtoReg_o [1:0] $end
    $var wire 32 * pc_i [31:0] $end
    $var wire 32 5 pc_o [31:0] $end
    $var wire  5 i rd_i [4:0] $end
    $var wire  5 v rd_o [4:0] $end
    $var wire  1 h regWrite_i $end
    $var wire  1 t regWrite_o $end
    $var wire  1 6! rst $end
    $var wire 32 m writeData_i [31:0] $end
    $var wire 32 4 writeData_o [31:0] $end
   $upscope $end
   $scope module m_regIDEX $end
    $var wire  2 *! ALUOp_i [1:0] $end
    $var wire  2 - ALUOp_o [1:0] $end
    $var wire  1 (! ALUSrc_A_i $end
    $var wire  1 + ALUSrc_A_o $end
    $var wire  1 )! ALUSrc_B_i $end
    $var wire  1 , ALUSrc_B_o $end
    $var wire  1 5! clk $end
    $var wire  1 3! flush $end
    $var wire  3 ^ func3_i [2:0] $end
    $var wire  3 % func3_o [2:0] $end
    $var wire  1 ] func7_i $end
    $var wire  1 & func7_o $end
    $var wire 32 a imm_i [31:0] $end
    $var wire 32 ) imm_o [31:0] $end
    $var wire  1 ,! memRead_i $end
    $var wire  1 g memRead_o $end
    $var wire  1 +! memWrite_i $end
    $var wire  1 # memWrite_o $end
    $var wire  2 .! memtoReg_i [1:0] $end
    $var wire  2 $ memtoReg_o [1:0] $end
    $var wire  7 b opcode_i [6:0] $end
    $var wire  7 0 opcode_o [6:0] $end
    $var wire 32 [ pc_i [31:0] $end
    $var wire 32 * pc_o [31:0] $end
    $var wire  5 z rd_i [4:0] $end
    $var wire  5 i rd_o [4:0] $end
    $var wire 32 X! readdata1_i [31:0] $end
    $var wire 32 ' readdata1_o [31:0] $end
    $var wire 32 Y! readdata2_i [31:0] $end
    $var wire 32 ( readdata2_o [31:0] $end
    $var wire  1 -! regWrite_i $end
    $var wire  1 h regWrite_o $end
    $var wire  5 _ rs1_i [4:0] $end
    $var wire  5 . rs1_o [4:0] $end
    $var wire  5 ` rs2_i [4:0] $end
    $var wire  5 / rs2_o [4:0] $end
    $var wire  1 6! rst $end
   $upscope $end
   $scope module m_regIFID $end
    $var wire  1 5! clk $end
    $var wire  1 3! flush $end
    $var wire  3 ^ func3 [2:0] $end
    $var wire  1 ] func7 $end
    $var wire 32 2! inst_i [31:0] $end
    $var wire 32 \ inst_o [31:0] $end
    $var wire 32 e pc_i [31:0] $end
    $var wire 32 [ pc_o [31:0] $end
    $var wire  5 z rd [4:0] $end
    $var wire  5 _ rs1 [4:0] $end
    $var wire  5 ` rs2 [4:0] $end
    $var wire  1 6! rst $end
    $var wire  1 0! stall $end
   $upscope $end
   $scope module m_regMEMWB $end
    $var wire 32 u ALU_i [31:0] $end
    $var wire 32 7 ALU_o [31:0] $end
    $var wire  1 5! clk $end
    $var wire 32 Z! mem_i [31:0] $end
    $var wire 32 8 mem_o [31:0] $end
    $var wire  2 3 memtoReg_i [1:0] $end
    $var wire  2 6 memtoReg_o [1:0] $end
    $var wire 32 5 pc_i [31:0] $end
    $var wire 32 9 pc_o [31:0] $end
    $var wire  5 v rd_i [4:0] $end
    $var wire  5 x rd_o [4:0] $end
    $var wire  1 t regWrite_i $end
    $var wire  1 w regWrite_o $end
    $var wire  1 6! rst $end
   $upscope $end
  $upscope $end
 $upscope $end
$enddefinitions $end


#0
0#
b00 $
b000 %
0&
b00000000000000000000000000000000 '
b00000000000000000000000000000000 (
b00000000000000000000000000000000 )
b00000000000000000000000000000000 *
0+
0,
b00 -
b00000 .
b00000 /
b0000000 0
b0010 1
02
b00 3
b00000000000000000000000000000000 4
b00000000000000000000000000000000 5
b00 6
b00000000000000000000000000000000 7
b00000000000000000000000000000000 8
b00000000000000000000000000000000 9
b00000000000000000000000000000100 :
b00000000000000000000000000000000 ;
b00000000000000000000000000000000 <
b00000000000000000000000000000000 =
b00000000000000000000000000000000 >
b00000000000000000000000000000000 ?
b00000000000000000000000000000000 @
b00000000000000000000000000000000 A
b00000000000000000000000000000000 B
b00000000000000000000000000000000 C
b00000000000000000000000000000000 D
b00000000000000000000000000000000 E
b00000000000000000000000000000000 F
b00000000000000000000000000000000 G
b00000000000000000000000000000000 H
b00000000000000000000000000000000 I
b00000000000000000000000000000000 J
b00000000000000000000000000000000 K
b00000000000000000000000000000000 L
b00000000000000000000000000000000 M
b00000000000000000000000000000000 N
b00000000000000000000000000000000 O
b00000000000000000000000000000000 P
b00000000000000000000000000000000 Q
b00000000000000000000000000000000 R
b00000000000000000000000000000000 S
b00000000000000000000000000000000 T
b00000000000000000000000000000000 U
b00000000000000000000000000000000 V
b00000000000000000000000000000000 W
b00000000000000000000000000000000 X
b00000000000000000000000000000000 Y
b00000000000000000000000000000000 Z
b00000000000000000000000000000000 [
b00000000000000000000000000000000 \
0]
b000 ^
b00000 _
b00000 `
b00000000000000000000000000000000 a
b0000000 b
b00000 c
b00000 d
b00000000000000000000000000000000 e
b00000000000000000000000000000100 f
0g
0h
b00000 i
1j
0k
b00000000000000000000000000000000 l
b00000000000000000000000000000000 m
b00000000000000000000000000000000 n
b00000000000000000000000000000000 o
b00000000000000000000000000000000 p
b00 q
b00 r
0s
0t
b00000000000000000000000000000000 u
b00000 v
0w
b00000 x
b00000000000000000000000000000000 y
b00000 z
0{
0|
b00 }
0~
0!!
0"!
b00 #!
1$!
1%!
b000000000 &!
b000000000 '!
0(!
0)!
b00 *!
0+!
0,!
0-!
b00 .!
0/!
00!
01!
b00000000010000000000011000010011 2!
03!
04!
05!
16!
b00000000000000000000000000000000 7!
b00000000000000000000000000000000 8!
b00000000000000000000000000000000 9!
b00000000000000000000000000000000 :!
b00000000000000000000000000000000 ;!
b00000000000000000000000000000000 <!
b00000000000000000000000000000000 =!
b00000000000000000000000000000000 >!
b00000000000000000000000000000000 ?!
b00000000000000000000000000000000 @!
b00000000000000000000000000000000 A!
b00000000000000000000000000000000 B!
b00000000000000000000000000000000 C!
b00000000000000000000000000000000 D!
b00000000000000000000000000000000 E!
b00000000000000000000000000000000 F!
b00000000000000000000000000000000 G!
b00000000000000000000000000000000 H!
b00000000000000000000000000000000 I!
b00000000000000000000000000000000 J!
b00000000000000000000000000000000 K!
b00000000000000000000000000000000 L!
b00000000000000000000000000000000 M!
b00000000000000000000000000000000 N!
b00000000000000000000000000000000 O!
b00000000000000000000000000000000 P!
b00000000000000000000000000000000 Q!
b00000000000000000000000000000000 R!
b00000000000000000000000000000000 S!
b00000000000000000000000000000000 T!
b00000000000000000000000000000000 U!
b00000000000000000000000000000000 V!
b00000000000000000000000000000100 W!
b00000000000000000000000000000000 X!
b00000000000000000000000000000000 Y!
b00000000000000000000000000000000 Z!
b00000000000000000000000000000100 [!
b00000000000000000000000000000001 \!
0]!
1^!
b00000000000000000000000000100000 _!
b00000000000000000000000000001001 `!
b000000000 a!
#1
b00000000000000000000000010000000 =
b00000000010000000000011000010011 \
b00100 `
b00000000000000000000000000000100 a
b0010011 b
b00100 d
b01100 z
1|
b11 }
1"!
b01 #!
0%!
b011100101 &!
b011100101 '!
1)!
b11 *!
1-!
b01 .!
15!
06!
b00000000000000000000000010000000 9!
#2
05!
16!
#3
b01 $
b00000000000000000000000000000100 )
1,
b11 -
b00100 /
b0010011 0
b00000000000000000000000000000100 e
b00000000000000000000000000001000 f
1h
b01100 i
b00000000000000000000000000000100 o
b00000000000000000000000000000100 p
b00000000110000000000000011101111 2!
15!
b00000000000000000000000000001000 W!
#4
05!
#5
b01 3
b00000000000000000000000000000100 [
b00000000110000000000000011101111 \
b01100 `
b00000000000000000000000000001100 a
b1101111 b
b01100 d
b00000000000000000000000000001000 e
b00000000000000000000000000001100 f
1t
b00000000000000000000000000000100 u
b01100 v
b00001 z
1{
b00 }
b10 #!
0$!
b110000110 &!
b110000110 '!
1(!
b00 *!
b10 .!
b00000000010000000000000011101111 2!
15!
b00000000000000000000000000001100 W!
#6
05!
#7
b10 $
b00000000000000000000000000001100 )
b00000000000000000000000000000100 *
1+
b00 -
b01100 /
b1101111 0
b01 6
b00000000000000000000000000000100 7
b00000000000000000000000000001000 [
b00000000010000000000000011101111 \
b00100 `
b00000000000000000000000000000100 a
b00100 d
b00000000000000000000000000001100 e
b00000000000000000000000000010000 f
b00001 i
0j
1k
b00000000000000000000000000000100 m
b00000000000000000000000000000100 n
b00000000000000000000000000001100 o
b00000000000000000000000000010000 p
b10 r
1w
b01100 x
b00000000000000000000000000000100 y
b00000000000000000000000001101111 2!
13!
14!
15!
b00000000000000000000000000010000 W!
#8
b00000000000000000000000000000100 G
05!
b00000000000000000000000000000100 C!
#9
b00 $
b00000000000000000000000000000000 )
b00000000000000000000000000000000 *
0+
0,
b10 -
b00000 /
b0110011 0
b10 3
b00000000000000000000000000000100 4
b00000000000000000000000000000100 5
b00000000000000000000000000000000 [
b00000000000000000000000000110011 \
b00000 `
b00000000000000000000000000000000 a
b0110011 b
b00000 d
b00000000000000000000000000010000 e
b00000000000000000000000000010100 f
0h
b00000 i
1j
0k
b00000000000000000000000000000000 m
b00000000000000000000000000000000 n
b00000000000000000000000000000000 o
b00000000000000000000000000000000 p
b00 r
b00000000000000000000000000010000 u
b00001 v
b00000 z
0{
0|
b10 }
b01 #!
1$!
1%!
b001000101 &!
b001000101 '!
0(!
0)!
b10 *!
b01 .!
b11111111010000010000000100010011 2!
03!
04!
15!
b00000000000000000000000000010100 W!
#10
05!
#11
b01 $
b00 3
b00000000000000000000000000000000 4
b00000000000000000000000000000000 5
b10 6
b00000000000000000000000000010000 7
b00000000000000000000000000000100 9
b00000000000000000000000000001000 :
b00000000000000000000000000010000 [
b11111111010000010000000100010011 \
1]
b00010 _
b10100 `
b11111111111111111111111111110100 a
b0010011 b
b00010 c
b10100 d
b00000000000000000000000000010100 e
b00000000000000000000000000011000 f
1h
0t
b00000000000000000000000000000000 u
b00000 v
b00001 x
b00000000000000000000000000001000 y
b00010 z
1|
b11 }
0%!
b011100101 &!
b011100101 '!
1)!
b11 *!
b00000000000100010010010000100011 2!
15!
b00000000000000000000000000011000 W!
b00000000000000000000000010000000 X!
#12
b00000000000000000000000000001000 <
05!
b00000000000000000000000000001000 8!
#13
1&
b00000000000000000000000010000000 '
b11111111111111111111111111110100 )
b00000000000000000000000000010000 *
1,
b11 -
b00010 .
b10100 /
b0010011 0
b01 3
b00 6
b00000000000000000000000000000000 7
b00000000000000000000000000000000 9
b00000000000000000000000000000100 :
b00000000000000000000000000010100 [
b00000000000100010010010000100011 \
0]
b010 ^
b00001 `
b00000000000000000000000000001000 a
b0100011 b
b00001 d
b00000000000000000000000000011000 e
b00000000000000000000000000011100 f
b00010 i
0j
b00000000000000000000000010000000 l
b00000000000000000000000010000000 n
b11111111111111111111111111110100 o
b00000000000000000000000001110100 p
1t
0w
b00000 x
b00000000000000000000000000000000 y
b01000 z
b00 }
1~
0"!
b00 #!
1%!
b010010000 &!
b010010000 '!
b00 *!
1+!
0-!
b00 .!
b00000000100000010010001000100011 2!
15!
b00000000000000000000000000011100 W!
b00000000000000000000000000001000 Y!
#14
05!
#15
1#
b00 $
b010 %
0&
b00000000000000000000000000001000 (
b00000000000000000000000000001000 )
b00000000000000000000000000010100 *
b00 -
b00001 /
b0100011 0
b00000000000000000000000000010000 5
b01 6
b00000000000000000000000000011000 [
b00000000100000010010001000100011 \
b01000 `
b00000000000000000000000000000100 a
b01000 d
b00000000000000000000000000011100 e
b00000000000000000000000000100000 f
0h
b01000 i
b00000000000000000000000001110100 l
b00000000000000000000000000001000 m
b00000000000000000000000001110100 n
b00000000000000000000000000001000 o
b00000000000000000000000001111100 p
b10 q
b00000000000000000000000001110100 u
b00010 v
1w
b00100 z
b00000000000000000000010100010011 2!
15!
b00000000000000000000000000100000 W!
b00000000000000000000000000000000 Y!
#16
05!
#17
b00000000000000000000000000000000 (
b00000000000000000000000000000100 )
b00000000000000000000000000011000 *
b01000 /
12
b00 3
b00000000000000000000000000001000 4
b00000000000000000000000000010100 5
b00000000000000000000000001110100 7
b00000000000000000000000000010000 9
b00000000000000000000000000010100 :
b00000000000000000000000000011100 [
b00000000000000000000010100010011 \
b000 ^
b00000 _
b00000 `
b00000000000000000000000000000000 a
b0010011 b
b00000 c
b00000 d
b00000000000000000000000000100000 e
b00000000000000000000000000100100 f
b00100 i
b00000000000000000000000000000000 m
b00000000000000000000000000000100 o
b00000000000000000000000001111000 p
b01 q
0t
b00000000000000000000000001111100 u
b01000 v
b00010 x
b00000000000000000000000001110100 y
b01010 z
b11 }
0~
1"!
b01 #!
0%!
b011100101 &!
b011100101 '!
b11 *!
0+!
1-!
b01 .!
b00000010000001100000011001100011 2!
15!
b00000000000000000000000000100100 W!
b00000000000000000000000000000000 X!
#18
b00000000000000000000000001110100 =
05!
b00000000000000000000000001110100 9!
#19
0#
b01 $
b000 %
b00000000000000000000000000000000 '
b00000000000000000000000000000000 )
b00000000000000000000000000011100 *
b11 -
b00000 .
b00000 /
b0010011 0
b00000000000000000000000000000000 4
b00000000000000000000000000011000 5
b00 6
b00000000000000000000000001111100 7
b00000000000000000000000000010100 9
b00000000000000000000000000011000 :
b00000000000000000000000000100000 [
b00000010000001100000011001100011 \
b01100 _
b00000000000000000000000000101100 a
b1100011 b
b01100 c
b00000000000000000000000000100100 e
b00000000000000000000000000101000 f
1h
b01010 i
1j
b00000000000000000000000000000000 l
b00000000000000000000000000000000 n
b00000000000000000000000000000000 o
b00000000000000000000000000000000 p
b00 q
b00000000000000000000000001111000 u
b00100 v
0w
b01000 x
b00000000000000000000000000000000 y
b01100 z
1{
b00 }
0"!
b00 #!
1%!
b110000000 &!
b110000000 '!
1(!
b00 *!
0-!
b00 .!
b00000000000101010000010100010011 2!
15!
b00000000000000000000000000101000 W!
b00000000000000000000000000000100 X!
#20
05!
#21
b00 $
b00000000000000000000000000000100 '
b00000000000000000000000000101100 )
b00000000000000000000000000100000 *
1+
b00 -
b01100 .
b1100011 0
02
b01 3
b00000000000000000000000000011100 5
b00000000000000000000000001111000 7
b00000000000000000000000000011000 9
b00000000000000000000000000011100 :
b00000000000000000000000000100100 [
b00000000000101010000010100010011 \
b01010 _
b00001 `
b00000000000000000000000000000001 a
b0010011 b
b01010 c
b00001 d
b00000000000000000000000000101000 e
b00000000000000000000000000101100 f
0h
b01100 i
0j
b00000000000000000000000000000100 l
b00000000000000000000000000100000 n
b00000000000000000000000000101100 o
b00000000000000000000000001001100 p
1t
b00000000000000000000000000000000 u
b01010 v
b00100 x
b01010 z
0{
b11 }
1"!
b01 #!
0%!
b011100101 &!
b011100101 '!
0(!
b11 *!
1-!
b01 .!
b00000010101001100000001001100011 2!
15!
b00000000000000000000000000101100 W!
b00000000000000000000000000000000 X!
b00000000000000000000000000001000 Y!
#22
05!
